\relax 
\providecommand\zref@newlabel[2]{}
\providecommand\tcolorbox@label[2]{}
\@writefile{toc}{\contentsline {paragraph}{About}{1}}
\@writefile{toc}{\contentsline {paragraph}{Description}{1}}
\@writefile{toc}{\contentsline {paragraph}{Instructions}{1}}
\@writefile{toc}{\contentsline {paragraph}{Instructions, pt 2}{1}}
\@writefile{toc}{\contentsline {paragraph}{Turn in}{1}}
\newlabel{LastPage}{{}{1}}
\xdef\lastpage@lastpage{1}
\gdef\lastpage@lastpageHy{}
